<svg xmlns:dc="http://purl.org/dc/elements/1.1/" xmlns:cc="http://creativecommons.org/ns#" xmlns:rdf="http://www.w3.org/1999/02/22-rdf-syntax-ns#" xmlns:svg="http://www.w3.org/2000/svg" xmlns="http://www.w3.org/2000/svg" xmlns:sodipodi="http://sodipodi.sourceforge.net/DTD/sodipodi-0.dtd" xmlns:inkscape="http://www.inkscape.org/namespaces/inkscape" id="svg0" version="1.1" viewBox="0 0 140 140" height="140mm" width="140mm">
  <sodipodi:namedview/><defs id="defs2">
     <style id="style1">
// Not in a CDATA for testing.
#layer1 {
   stroke: yellow;
}
circle {
   fill: red;
}
.two {
   fill: green;
}
#rect3.three {
   fill: cyan;
}
#layer1 .four {
   fill: grey;
}
#rect1 {
   fill: blue;
}
#circle1, #circle2, .two {
   font: Homie;
}
     </style>
     <style id="style2"/>
     <style id="style3"><![CDATA[
#layer1 {
    stroke-width: 2px;
}
.rule {
}
     ]]></style>
  <svg:marker id="Arrow1Lstart" orient="auto" refX="0.0" refY="0.0" style="overflow:visible" inkscape:stockid="Arrow1Lstart"><path d="M 0.0,0.0 L 5.0,-5.0 L -12.5,0.0 L 5.0,5.0 L 0.0,0.0 z " transform="matrix(0.8 0 0 0.8 10 0)" style="fill-rule:evenodd;stroke:#000000;stroke-width:1.0pt;marker-start:none"/></svg:marker><svg:marker id="Arrow1Lend" orient="auto" refX="0.0" refY="0.0" style="overflow:visible" inkscape:stockid="Arrow1Lend"><path d="M 0.0,0.0 L 5.0,-5.0 L -12.5,0.0 L 5.0,5.0 L 0.0,0.0 z " transform="matrix(-0.8 9.79717e-17 -9.79717e-17 -0.8 -10 1.22465e-15)" style="fill-rule:evenodd;stroke:#000000;stroke-width:1.0pt;marker-start:none"/></svg:marker></defs>
  <g id="layer1" inkscape:groupmode="layer" inkscape:label="Layer 1">
    <rect y="0" x="0" class="one" height="70" width="70" id="rect1"/>
    <rect id="rect2" class="two" width="70" height="70" x="70" y="0"/>
    <rect y="70" x="0" class="three" height="70" width="70" id="rect3"/>
    <rect id="rect4" class="four" width="70" height="70" style="stroke: red;" x="70" y="70"/>
    <circle r="10" cy="20" cx="20" id="circle2"/>
  </g>
<svg:g fill="none" stroke="black"><svg:path d="M 34.998977 21.770833 H 105.000000" marker-start="url(#Arrow1Lstart)" marker-end="url(#Arrow1Lend)" stroke-width="0.26458333333333334"/><svg:path d="M 34.998977 8.541667 V 105.001023" stroke-width="0.13229166666666667"/><svg:path d="M 105.000000 8.541667 V 105.001023" stroke-width="0.13229166666666667"/><svg:path d="M 21.769810 35.000000 V 105.001023" marker-start="url(#Arrow1Lstart)" marker-end="url(#Arrow1Lend)" stroke-width="0.26458333333333334"/><svg:path d="M 8.540644 35.000000 H 105.000000" stroke-width="0.13229166666666667"/><svg:path d="M 8.540644 105.001023 H 105.000000" stroke-width="0.13229166666666667"/><svg:circle r="35" cy="70" cx="70" id="circle1"/>
    </svg:g></svg>